%YAML 1.1
%TAG !u! tag:unity3d.com,2011:
--- !u!74 &7400000
AnimationClip:
  m_ObjectHideFlags: 0
  m_CorrespondingSourceObject: {fileID: 0}
  m_PrefabInstance: {fileID: 0}
  m_PrefabAsset: {fileID: 0}
  m_Name: pruebaNpc
  serializedVersion: 6
  m_Legacy: 0
  m_Compressed: 0
  m_UseHighQualityCurve: 1
  m_RotationCurves: []
  m_CompressedRotationCurves: []
  m_EulerCurves: []
  m_PositionCurves: []
  m_ScaleCurves: []
  m_FloatCurves: []
  m_PPtrCurves:
  - curve:
    - time: 0
      value: {fileID: 21300000, guid: a51f8da2d177247428c4a55344e2625f, type: 3}
    - time: 0.083333336
      value: {fileID: 21300000, guid: 54fff183bdac3f44aabb7c710ad2f261, type: 3}
    - time: 0.16666667
      value: {fileID: 21300000, guid: a900870d56a674e4991261f321e3d2b5, type: 3}
    - time: 0.25
      value: {fileID: 21300000, guid: 79e1f49d6ef4f2e4cb9ae338bcca3870, type: 3}
    - time: 0.33333334
      value: {fileID: 21300000, guid: 1b2d5f251ee428042853ec098af1ca35, type: 3}
    - time: 0.41666666
      value: {fileID: 21300000, guid: 7154985a6f09c2244b16646c6c07626f, type: 3}
    - time: 0.5
      value: {fileID: 21300000, guid: cfb1de19d352ab04e854046d129fca5a, type: 3}
    - time: 0.5833333
      value: {fileID: 21300000, guid: 367b1cd8496f6ac40a51b96734ec7a9c, type: 3}
    - time: 0.6666667
      value: {fileID: 21300000, guid: 30c2b7c31dd1db34c9394e8e1db26b5d, type: 3}
    - time: 0.75
      value: {fileID: 21300000, guid: 3b26531a0c6ac994cb00c1641abf516f, type: 3}
    - time: 0.8333333
      value: {fileID: 21300000, guid: 2c4f6860adee15e4ea2ccd3276c2bc51, type: 3}
    - time: 0.9166667
      value: {fileID: 21300000, guid: 5efe075456cffb74dbc9e127ebfc53af, type: 3}
    - time: 1
      value: {fileID: 21300000, guid: 0e00b45591a0aa84b92396a5213676be, type: 3}
    - time: 1.0833334
      value: {fileID: 21300000, guid: 874d481fc44fb0440b78c23785c5dbf8, type: 3}
    - time: 1.1666666
      value: {fileID: 21300000, guid: fec66259653a9834e81f65d0f4f4beb0, type: 3}
    - time: 1.25
      value: {fileID: 21300000, guid: 966923305b17d694f8bafb9bbd1ab585, type: 3}
    - time: 1.3333334
      value: {fileID: 21300000, guid: 7094831bf28286e45baecb8abe3305f9, type: 3}
    - time: 1.4166666
      value: {fileID: 21300000, guid: 49d7bc052d0efa04cad685c32e82991f, type: 3}
    - time: 1.5
      value: {fileID: 21300000, guid: a6f18fa7995494540aced0226c5fa8e3, type: 3}
    - time: 1.5833334
      value: {fileID: 21300000, guid: 2f9e3f5fc4af3df4695ee8fd23fac67c, type: 3}
    - time: 1.6666666
      value: {fileID: 21300000, guid: 1968cf2e74ffed3469fee00b69ad6ad8, type: 3}
    - time: 1.75
      value: {fileID: 21300000, guid: 4174f1efcaa2ce04eaa625c88043a1d4, type: 3}
    - time: 1.8333334
      value: {fileID: 21300000, guid: c479ebe2b493dce48b02e5aa43a35461, type: 3}
    - time: 1.9166666
      value: {fileID: 21300000, guid: 4fe706a9c415b5548b91cdbf57979e6d, type: 3}
    - time: 2
      value: {fileID: 21300000, guid: 762983ed8e7a3fd44a5c9c283ee67ded, type: 3}
    attribute: m_Sprite
    path: 
    classID: 212
    script: {fileID: 0}
  m_SampleRate: 12
  m_WrapMode: 0
  m_Bounds:
    m_Center: {x: 0, y: 0, z: 0}
    m_Extent: {x: 0, y: 0, z: 0}
  m_ClipBindingConstant:
    genericBindings:
    - serializedVersion: 2
      path: 0
      attribute: 0
      script: {fileID: 0}
      typeID: 212
      customType: 23
      isPPtrCurve: 1
    pptrCurveMapping:
    - {fileID: 21300000, guid: a51f8da2d177247428c4a55344e2625f, type: 3}
    - {fileID: 21300000, guid: 54fff183bdac3f44aabb7c710ad2f261, type: 3}
    - {fileID: 21300000, guid: a900870d56a674e4991261f321e3d2b5, type: 3}
    - {fileID: 21300000, guid: 79e1f49d6ef4f2e4cb9ae338bcca3870, type: 3}
    - {fileID: 21300000, guid: 1b2d5f251ee428042853ec098af1ca35, type: 3}
    - {fileID: 21300000, guid: 7154985a6f09c2244b16646c6c07626f, type: 3}
    - {fileID: 21300000, guid: cfb1de19d352ab04e854046d129fca5a, type: 3}
    - {fileID: 21300000, guid: 367b1cd8496f6ac40a51b96734ec7a9c, type: 3}
    - {fileID: 21300000, guid: 30c2b7c31dd1db34c9394e8e1db26b5d, type: 3}
    - {fileID: 21300000, guid: 3b26531a0c6ac994cb00c1641abf516f, type: 3}
    - {fileID: 21300000, guid: 2c4f6860adee15e4ea2ccd3276c2bc51, type: 3}
    - {fileID: 21300000, guid: 5efe075456cffb74dbc9e127ebfc53af, type: 3}
    - {fileID: 21300000, guid: 0e00b45591a0aa84b92396a5213676be, type: 3}
    - {fileID: 21300000, guid: 874d481fc44fb0440b78c23785c5dbf8, type: 3}
    - {fileID: 21300000, guid: fec66259653a9834e81f65d0f4f4beb0, type: 3}
    - {fileID: 21300000, guid: 966923305b17d694f8bafb9bbd1ab585, type: 3}
    - {fileID: 21300000, guid: 7094831bf28286e45baecb8abe3305f9, type: 3}
    - {fileID: 21300000, guid: 49d7bc052d0efa04cad685c32e82991f, type: 3}
    - {fileID: 21300000, guid: a6f18fa7995494540aced0226c5fa8e3, type: 3}
    - {fileID: 21300000, guid: 2f9e3f5fc4af3df4695ee8fd23fac67c, type: 3}
    - {fileID: 21300000, guid: 1968cf2e74ffed3469fee00b69ad6ad8, type: 3}
    - {fileID: 21300000, guid: 4174f1efcaa2ce04eaa625c88043a1d4, type: 3}
    - {fileID: 21300000, guid: c479ebe2b493dce48b02e5aa43a35461, type: 3}
    - {fileID: 21300000, guid: 4fe706a9c415b5548b91cdbf57979e6d, type: 3}
    - {fileID: 21300000, guid: 762983ed8e7a3fd44a5c9c283ee67ded, type: 3}
  m_AnimationClipSettings:
    serializedVersion: 2
    m_AdditiveReferencePoseClip: {fileID: 0}
    m_AdditiveReferencePoseTime: 0
    m_StartTime: 0
    m_StopTime: 2.0833333
    m_OrientationOffsetY: 0
    m_Level: 0
    m_CycleOffset: 0
    m_HasAdditiveReferencePose: 0
    m_LoopTime: 1
    m_LoopBlend: 0
    m_LoopBlendOrientation: 0
    m_LoopBlendPositionY: 0
    m_LoopBlendPositionXZ: 0
    m_KeepOriginalOrientation: 0
    m_KeepOriginalPositionY: 1
    m_KeepOriginalPositionXZ: 0
    m_HeightFromFeet: 0
    m_Mirror: 0
  m_EditorCurves: []
  m_EulerEditorCurves: []
  m_HasGenericRootTransform: 0
  m_HasMotionFloatCurves: 0
  m_Events: []
