%YAML 1.1
%TAG !u! tag:unity3d.com,2011:
--- !u!74 &7400000
AnimationClip:
  m_ObjectHideFlags: 0
  m_CorrespondingSourceObject: {fileID: 0}
  m_PrefabInstance: {fileID: 0}
  m_PrefabAsset: {fileID: 0}
  m_Name: jumPlayer
  serializedVersion: 6
  m_Legacy: 0
  m_Compressed: 0
  m_UseHighQualityCurve: 1
  m_RotationCurves: []
  m_CompressedRotationCurves: []
  m_EulerCurves: []
  m_PositionCurves: []
  m_ScaleCurves: []
  m_FloatCurves: []
  m_PPtrCurves:
  - curve:
    - time: 0
      value: {fileID: 21300000, guid: 175d25dda0575774c93261d3e1b19dd3, type: 3}
    - time: 0.06666667
      value: {fileID: 21300000, guid: a07f0ef834240e64e8311a361e862f34, type: 3}
    - time: 0.13333334
      value: {fileID: 21300000, guid: 803544cb5f78e994fa90853986258155, type: 3}
    - time: 0.2
      value: {fileID: 21300000, guid: 1e6aa6f88bce6b047905e42bd5271f88, type: 3}
    - time: 0.26666668
      value: {fileID: 21300000, guid: 7b8c73f43bcf99845a25d5677b171835, type: 3}
    - time: 0.33333334
      value: {fileID: 21300000, guid: bbd68ad8d1a217c45a655ab943d28101, type: 3}
    - time: 0.4
      value: {fileID: 21300000, guid: 005e70aea7ae4474bb5f7f719102922a, type: 3}
    - time: 0.46666667
      value: {fileID: 21300000, guid: 406d8d9450b667641a8ddd6a5299de5e, type: 3}
    - time: 0.53333336
      value: {fileID: 21300000, guid: 4da6c4359e73b75499f92da392b29097, type: 3}
    - time: 0.6
      value: {fileID: 21300000, guid: b2d137ec30685fb4da8c02cd574e799d, type: 3}
    - time: 0.6666667
      value: {fileID: 21300000, guid: 274d5d6174627b340806847bb15b28a9, type: 3}
    - time: 0.73333335
      value: {fileID: 21300000, guid: 215e95e0fa3673d4cb682a4c81fd058c, type: 3}
    - time: 0.8
      value: {fileID: 21300000, guid: f784f383bf337024ca3a4de16f18a2a3, type: 3}
    - time: 0.8666667
      value: {fileID: 21300000, guid: de6cf2f5b1a1e264ca5904695377831c, type: 3}
    - time: 0.93333334
      value: {fileID: 21300000, guid: c14ab67ef3924f6448e75250585a8419, type: 3}
    - time: 1
      value: {fileID: 21300000, guid: 2a640805f7999374a9a5d1abd3a1e200, type: 3}
    - time: 1.0666667
      value: {fileID: 21300000, guid: 3607fcf8a13348c4c9fb49147834d692, type: 3}
    - time: 1.1333333
      value: {fileID: 21300000, guid: 3b4fa635cc7081d4f91040db55a998b9, type: 3}
    - time: 1.2
      value: {fileID: 21300000, guid: 22f5594f3f2cc4e4c8447ce9ffc745bf, type: 3}
    - time: 1.2666667
      value: {fileID: 21300000, guid: 2da0bfa008de6bf4fa7f191439bd35d7, type: 3}
    - time: 1.3333334
      value: {fileID: 21300000, guid: 59687e49a1fd0ab46af6356b8c961b36, type: 3}
    - time: 1.4
      value: {fileID: 21300000, guid: d6e1a00ada351bb45a3b0df239037986, type: 3}
    - time: 1.4666667
      value: {fileID: 21300000, guid: 98c04050e74c436459e5262992d1fa83, type: 3}
    - time: 1.5333333
      value: {fileID: 21300000, guid: 5c5405fb4f5d0324fb92df7cde7c31c1, type: 3}
    - time: 1.6
      value: {fileID: 21300000, guid: 62ccdcdd0822c9e44ba0f1081a371cf1, type: 3}
    - time: 1.6666666
      value: {fileID: 21300000, guid: a8602314f475b5d4b80d47c1103d5b30, type: 3}
    - time: 1.7333333
      value: {fileID: 21300000, guid: c5911077fbe35584a85b7ce7d4512278, type: 3}
    - time: 1.8
      value: {fileID: 21300000, guid: 5420630306a6e0d41809049eff93b1da, type: 3}
    - time: 1.8666667
      value: {fileID: 21300000, guid: 5795360a32836ac49a64446c20e1077d, type: 3}
    - time: 1.9333333
      value: {fileID: 21300000, guid: 22db47a47e416d045a06ab2f6e9228b7, type: 3}
    attribute: m_Sprite
    path: 
    classID: 114
    script: {fileID: 11500000, guid: fe87c0e1cc204ed48ad3b37840f39efc, type: 3}
  m_SampleRate: 15
  m_WrapMode: 0
  m_Bounds:
    m_Center: {x: 0, y: 0, z: 0}
    m_Extent: {x: 0, y: 0, z: 0}
  m_ClipBindingConstant:
    genericBindings:
    - serializedVersion: 2
      path: 0
      attribute: 2015549526
      script: {fileID: 11500000, guid: fe87c0e1cc204ed48ad3b37840f39efc, type: 3}
      typeID: 114
      customType: 0
      isPPtrCurve: 1
    pptrCurveMapping:
    - {fileID: 21300000, guid: 175d25dda0575774c93261d3e1b19dd3, type: 3}
    - {fileID: 21300000, guid: a07f0ef834240e64e8311a361e862f34, type: 3}
    - {fileID: 21300000, guid: 803544cb5f78e994fa90853986258155, type: 3}
    - {fileID: 21300000, guid: 1e6aa6f88bce6b047905e42bd5271f88, type: 3}
    - {fileID: 21300000, guid: 7b8c73f43bcf99845a25d5677b171835, type: 3}
    - {fileID: 21300000, guid: bbd68ad8d1a217c45a655ab943d28101, type: 3}
    - {fileID: 21300000, guid: 005e70aea7ae4474bb5f7f719102922a, type: 3}
    - {fileID: 21300000, guid: 406d8d9450b667641a8ddd6a5299de5e, type: 3}
    - {fileID: 21300000, guid: 4da6c4359e73b75499f92da392b29097, type: 3}
    - {fileID: 21300000, guid: b2d137ec30685fb4da8c02cd574e799d, type: 3}
    - {fileID: 21300000, guid: 274d5d6174627b340806847bb15b28a9, type: 3}
    - {fileID: 21300000, guid: 215e95e0fa3673d4cb682a4c81fd058c, type: 3}
    - {fileID: 21300000, guid: f784f383bf337024ca3a4de16f18a2a3, type: 3}
    - {fileID: 21300000, guid: de6cf2f5b1a1e264ca5904695377831c, type: 3}
    - {fileID: 21300000, guid: c14ab67ef3924f6448e75250585a8419, type: 3}
    - {fileID: 21300000, guid: 2a640805f7999374a9a5d1abd3a1e200, type: 3}
    - {fileID: 21300000, guid: 3607fcf8a13348c4c9fb49147834d692, type: 3}
    - {fileID: 21300000, guid: 3b4fa635cc7081d4f91040db55a998b9, type: 3}
    - {fileID: 21300000, guid: 22f5594f3f2cc4e4c8447ce9ffc745bf, type: 3}
    - {fileID: 21300000, guid: 2da0bfa008de6bf4fa7f191439bd35d7, type: 3}
    - {fileID: 21300000, guid: 59687e49a1fd0ab46af6356b8c961b36, type: 3}
    - {fileID: 21300000, guid: d6e1a00ada351bb45a3b0df239037986, type: 3}
    - {fileID: 21300000, guid: 98c04050e74c436459e5262992d1fa83, type: 3}
    - {fileID: 21300000, guid: 5c5405fb4f5d0324fb92df7cde7c31c1, type: 3}
    - {fileID: 21300000, guid: 62ccdcdd0822c9e44ba0f1081a371cf1, type: 3}
    - {fileID: 21300000, guid: a8602314f475b5d4b80d47c1103d5b30, type: 3}
    - {fileID: 21300000, guid: c5911077fbe35584a85b7ce7d4512278, type: 3}
    - {fileID: 21300000, guid: 5420630306a6e0d41809049eff93b1da, type: 3}
    - {fileID: 21300000, guid: 5795360a32836ac49a64446c20e1077d, type: 3}
    - {fileID: 21300000, guid: 22db47a47e416d045a06ab2f6e9228b7, type: 3}
  m_AnimationClipSettings:
    serializedVersion: 2
    m_AdditiveReferencePoseClip: {fileID: 0}
    m_AdditiveReferencePoseTime: 0
    m_StartTime: 0
    m_StopTime: 2
    m_OrientationOffsetY: 0
    m_Level: 0
    m_CycleOffset: 0
    m_HasAdditiveReferencePose: 0
    m_LoopTime: 1
    m_LoopBlend: 0
    m_LoopBlendOrientation: 0
    m_LoopBlendPositionY: 0
    m_LoopBlendPositionXZ: 0
    m_KeepOriginalOrientation: 0
    m_KeepOriginalPositionY: 1
    m_KeepOriginalPositionXZ: 0
    m_HeightFromFeet: 0
    m_Mirror: 0
  m_EditorCurves: []
  m_EulerEditorCurves: []
  m_HasGenericRootTransform: 0
  m_HasMotionFloatCurves: 0
  m_Events: []
