%YAML 1.1
%TAG !u! tag:unity3d.com,2011:
--- !u!74 &7400000
AnimationClip:
  m_ObjectHideFlags: 0
  m_CorrespondingSourceObject: {fileID: 0}
  m_PrefabInstance: {fileID: 0}
  m_PrefabAsset: {fileID: 0}
  m_Name: coinAnimation
  serializedVersion: 6
  m_Legacy: 0
  m_Compressed: 0
  m_UseHighQualityCurve: 1
  m_RotationCurves: []
  m_CompressedRotationCurves: []
  m_EulerCurves: []
  m_PositionCurves: []
  m_ScaleCurves: []
  m_FloatCurves: []
  m_PPtrCurves:
  - curve:
    - time: 0
      value: {fileID: 21300000, guid: 8f51ed85dc3e8a34d86ab0e32d0fed38, type: 3}
    - time: 0.125
      value: {fileID: 21300000, guid: 79465f3ae6993cd49b4be97cb4528c3f, type: 3}
    - time: 0.25
      value: {fileID: 21300000, guid: 87f020e91f4fb4d4a8513d7b229f4429, type: 3}
    - time: 0.375
      value: {fileID: 21300000, guid: e5c37a29665504e4aa3827e839e788a8, type: 3}
    - time: 0.5
      value: {fileID: 21300000, guid: 3733c2d1fb9c0894ea94eede4921fffe, type: 3}
    - time: 0.625
      value: {fileID: 21300000, guid: f9d0cd6ceeb9f724299c2661f3baf4f0, type: 3}
    attribute: m_Sprite
    path: 
    classID: 114
    script: {fileID: 11500000, guid: fe87c0e1cc204ed48ad3b37840f39efc, type: 3}
  m_SampleRate: 8
  m_WrapMode: 0
  m_Bounds:
    m_Center: {x: 0, y: 0, z: 0}
    m_Extent: {x: 0, y: 0, z: 0}
  m_ClipBindingConstant:
    genericBindings:
    - serializedVersion: 2
      path: 0
      attribute: 2015549526
      script: {fileID: 11500000, guid: fe87c0e1cc204ed48ad3b37840f39efc, type: 3}
      typeID: 114
      customType: 0
      isPPtrCurve: 1
    pptrCurveMapping:
    - {fileID: 21300000, guid: 8f51ed85dc3e8a34d86ab0e32d0fed38, type: 3}
    - {fileID: 21300000, guid: 79465f3ae6993cd49b4be97cb4528c3f, type: 3}
    - {fileID: 21300000, guid: 87f020e91f4fb4d4a8513d7b229f4429, type: 3}
    - {fileID: 21300000, guid: e5c37a29665504e4aa3827e839e788a8, type: 3}
    - {fileID: 21300000, guid: 3733c2d1fb9c0894ea94eede4921fffe, type: 3}
    - {fileID: 21300000, guid: f9d0cd6ceeb9f724299c2661f3baf4f0, type: 3}
  m_AnimationClipSettings:
    serializedVersion: 2
    m_AdditiveReferencePoseClip: {fileID: 0}
    m_AdditiveReferencePoseTime: 0
    m_StartTime: 0
    m_StopTime: 0.75
    m_OrientationOffsetY: 0
    m_Level: 0
    m_CycleOffset: 0
    m_HasAdditiveReferencePose: 0
    m_LoopTime: 1
    m_LoopBlend: 0
    m_LoopBlendOrientation: 0
    m_LoopBlendPositionY: 0
    m_LoopBlendPositionXZ: 0
    m_KeepOriginalOrientation: 0
    m_KeepOriginalPositionY: 1
    m_KeepOriginalPositionXZ: 0
    m_HeightFromFeet: 0
    m_Mirror: 0
  m_EditorCurves: []
  m_EulerEditorCurves: []
  m_HasGenericRootTransform: 0
  m_HasMotionFloatCurves: 0
  m_Events: []
