%YAML 1.1
%TAG !u! tag:unity3d.com,2011:
--- !u!74 &7400000
AnimationClip:
  m_ObjectHideFlags: 0
  m_CorrespondingSourceObject: {fileID: 0}
  m_PrefabInstance: {fileID: 0}
  m_PrefabAsset: {fileID: 0}
  m_Name: walkLeftRain
  serializedVersion: 6
  m_Legacy: 0
  m_Compressed: 0
  m_UseHighQualityCurve: 1
  m_RotationCurves: []
  m_CompressedRotationCurves: []
  m_EulerCurves: []
  m_PositionCurves: []
  m_ScaleCurves: []
  m_FloatCurves: []
  m_PPtrCurves:
  - curve:
    - time: 0
      value: {fileID: 21300000, guid: 1fc7652380fe51743a0e1231c8e53584, type: 3}
    - time: 0.125
      value: {fileID: 21300000, guid: 5861f456891a7074a83707645f05bf6b, type: 3}
    - time: 0.25
      value: {fileID: 21300000, guid: b03a1d28922e083498e3441c0c7d3a49, type: 3}
    - time: 0.375
      value: {fileID: 21300000, guid: b16ce343ea989d0419e0365ebc4734a0, type: 3}
    - time: 0.5
      value: {fileID: 21300000, guid: bbc42ccf40073e04480c523a743f3192, type: 3}
    - time: 0.625
      value: {fileID: 21300000, guid: dcf7730aed580254db373dd43478f2d4, type: 3}
    - time: 0.75
      value: {fileID: 21300000, guid: f1ab2dab986060b40a88437d5158508c, type: 3}
    - time: 0.875
      value: {fileID: 21300000, guid: 489dbcc0b443f09418ee6a07bc289b7c, type: 3}
    - time: 1
      value: {fileID: 21300000, guid: 9307437e270a5b443821d9ff13bafcae, type: 3}
    - time: 1.125
      value: {fileID: 21300000, guid: 4d05fca3e2997be4db5e3e1cb078e5c4, type: 3}
    attribute: m_Sprite
    path: 
    classID: 212
    script: {fileID: 0}
  m_SampleRate: 8
  m_WrapMode: 0
  m_Bounds:
    m_Center: {x: 0, y: 0, z: 0}
    m_Extent: {x: 0, y: 0, z: 0}
  m_ClipBindingConstant:
    genericBindings:
    - serializedVersion: 2
      path: 0
      attribute: 0
      script: {fileID: 0}
      typeID: 212
      customType: 23
      isPPtrCurve: 1
    pptrCurveMapping:
    - {fileID: 21300000, guid: 1fc7652380fe51743a0e1231c8e53584, type: 3}
    - {fileID: 21300000, guid: 5861f456891a7074a83707645f05bf6b, type: 3}
    - {fileID: 21300000, guid: b03a1d28922e083498e3441c0c7d3a49, type: 3}
    - {fileID: 21300000, guid: b16ce343ea989d0419e0365ebc4734a0, type: 3}
    - {fileID: 21300000, guid: bbc42ccf40073e04480c523a743f3192, type: 3}
    - {fileID: 21300000, guid: dcf7730aed580254db373dd43478f2d4, type: 3}
    - {fileID: 21300000, guid: f1ab2dab986060b40a88437d5158508c, type: 3}
    - {fileID: 21300000, guid: 489dbcc0b443f09418ee6a07bc289b7c, type: 3}
    - {fileID: 21300000, guid: 9307437e270a5b443821d9ff13bafcae, type: 3}
    - {fileID: 21300000, guid: 4d05fca3e2997be4db5e3e1cb078e5c4, type: 3}
  m_AnimationClipSettings:
    serializedVersion: 2
    m_AdditiveReferencePoseClip: {fileID: 0}
    m_AdditiveReferencePoseTime: 0
    m_StartTime: 0
    m_StopTime: 1.25
    m_OrientationOffsetY: 0
    m_Level: 0
    m_CycleOffset: 0
    m_HasAdditiveReferencePose: 0
    m_LoopTime: 1
    m_LoopBlend: 0
    m_LoopBlendOrientation: 0
    m_LoopBlendPositionY: 0
    m_LoopBlendPositionXZ: 0
    m_KeepOriginalOrientation: 0
    m_KeepOriginalPositionY: 1
    m_KeepOriginalPositionXZ: 0
    m_HeightFromFeet: 0
    m_Mirror: 0
  m_EditorCurves: []
  m_EulerEditorCurves: []
  m_HasGenericRootTransform: 0
  m_HasMotionFloatCurves: 0
  m_Events:
  - time: 0.125
    functionName: callFootSteps
    data: 
    objectReferenceParameter: {fileID: 0}
    floatParameter: 0
    intParameter: 0
    messageOptions: 0
  - time: 0.875
    functionName: callFootSteps
    data: 
    objectReferenceParameter: {fileID: 0}
    floatParameter: 0
    intParameter: 0
    messageOptions: 0
